C:\Users\Kalin Govender\Documents\Git Repos\API-AutomationFramework\src\test\java\APIHandlerClasses\POSTHandlers\GenerateCardIdentifiesAPI\RequestClasses\CardDetails.java
C:\Users\Kalin Govender\Documents\Git Repos\API-AutomationFramework\src\test\java\Configurations\PropertiesLoader\PropertiesLoader.java
C:\Users\Kalin Govender\Documents\Git Repos\API-AutomationFramework\src\test\java\APIHandlerClasses\POSTHandlers\GenerateCardIdentifiesAPI\RequestClasses\GenerateCardIdentifiesRequest.java
C:\Users\Kalin Govender\Documents\Git Repos\API-AutomationFramework\src\test\java\BaseRequests\BaseRequest\BaseRequest.java
C:\Users\Kalin Govender\Documents\Git Repos\API-AutomationFramework\src\test\java\APIHandlerClasses\POSTHandlers\GenerateSessionKeyAPI\POSTGenerateSessionKeyAPIHandler.java
C:\Users\Kalin Govender\Documents\Git Repos\API-AutomationFramework\src\test\java\APIHandlerClasses\GETHandlers\GETAllCountriesDataAPI\Response\Currency.java
C:\Users\Kalin Govender\Documents\Git Repos\API-AutomationFramework\src\test\java\Tests\PostTestCases\POSTGenerateCardIdentitiesAPITests.java
C:\Users\Kalin Govender\Documents\Git Repos\API-AutomationFramework\src\test\java\APIHandlerClasses\GETHandlers\GETAllCountriesDataAPI\Response\Translations.java
C:\Users\Kalin Govender\Documents\Git Repos\API-AutomationFramework\src\test\java\BaseRequests\PostRequest.java
C:\Users\Kalin Govender\Documents\Git Repos\API-AutomationFramework\src\test\java\BaseRequests\PutRequest.java
C:\Users\Kalin Govender\Documents\Git Repos\API-AutomationFramework\src\test\java\Tests\PostTestCases\POSTGenerateSessionKeysAPITests.java
C:\Users\Kalin Govender\Documents\Git Repos\API-AutomationFramework\src\test\java\APIHandlerClasses\GETHandlers\GETAllCountriesDataAPI\Response\RegionalBloc.java
C:\Users\Kalin Govender\Documents\Git Repos\API-AutomationFramework\src\test\java\Tests\GetTestCases\GETAllCOVIDSummaryByRegionAPITest.java
C:\Users\Kalin Govender\Documents\Git Repos\API-AutomationFramework\src\test\java\Util\Listeners\Listeners.java
C:\Users\Kalin Govender\Documents\Git Repos\API-AutomationFramework\src\test\java\APIHandlerClasses\GETHandlers\GETAllCountriesDataAPI\Response\Language.java
C:\Users\Kalin Govender\Documents\Git Repos\API-AutomationFramework\src\test\java\APIHandlerClasses\GETHandlers\GETLatestRegionStatsAPI\Response\Summary.java
C:\Users\Kalin Govender\Documents\Git Repos\API-AutomationFramework\src\test\java\APIHandlerClasses\GETHandlers\GETLatestRegionStatsAPI\Response\Change.java
C:\Users\Kalin Govender\Documents\Git Repos\API-AutomationFramework\src\test\java\APIHandlerClasses\GETHandlers\GETLatestRegionStatsAPI\Response\Data.java
C:\Users\Kalin Govender\Documents\Git Repos\API-AutomationFramework\src\test\java\APIHandlerClasses\GETHandlers\GETLatestRegionStatsAPI\Response\GetCovidSummaryByregionResponse.java
C:\Users\Kalin Govender\Documents\Git Repos\API-AutomationFramework\src\test\java\BaseRequests\DeleteRequest.java
C:\Users\Kalin Govender\Documents\Git Repos\API-AutomationFramework\src\test\java\Util\ReportOutput\ReporterOutput.java
C:\Users\Kalin Govender\Documents\Git Repos\API-AutomationFramework\src\test\java\APIHandlerClasses\GETHandlers\GETLatestRegionStatsAPI\GETRegionStatisticsAPIHandler.java
C:\Users\Kalin Govender\Documents\Git Repos\API-AutomationFramework\src\test\java\APIHandlerClasses\POSTHandlers\GenerateCardIdentifiesAPI\GenerateCardIdentifiesAPIHandler.java
C:\Users\Kalin Govender\Documents\Git Repos\API-AutomationFramework\src\test\java\BaseRequests\PostRequest1.java
C:\Users\Kalin Govender\Documents\Git Repos\API-AutomationFramework\src\test\java\APIHandlerClasses\POSTHandlers\GenerateCardIdentifiesAPI\ResponseClasses\GenerateCardIdentifiesResponse.java
C:\Users\Kalin Govender\Documents\Git Repos\API-AutomationFramework\src\test\java\APIHandlerClasses\POSTHandlers\GenerateSessionKeyAPI\GenerateSessionKeyRequest.java
C:\Users\Kalin Govender\Documents\Git Repos\API-AutomationFramework\src\test\java\BaseRequests\GetRequest.java
C:\Users\Kalin Govender\Documents\Git Repos\API-AutomationFramework\src\test\java\Configurations\GlobalConfiguration\GlobalConfiguration.java
C:\Users\Kalin Govender\Documents\Git Repos\API-AutomationFramework\src\test\java\Tests\GetTestCases\GETAllCountriesDataAPITest.java
C:\Users\Kalin Govender\Documents\Git Repos\API-AutomationFramework\src\test\java\APIHandlerClasses\POSTHandlers\GenerateSessionKeyAPI\GenerateSessionKeyReponse.java
C:\Users\Kalin Govender\Documents\Git Repos\API-AutomationFramework\src\test\java\APIHandlerClasses\GETHandlers\GETAllCountriesDataAPI\Response\GetAllCountriesResponse.java
C:\Users\Kalin Govender\Documents\Git Repos\API-AutomationFramework\src\test\java\APIHandlerClasses\GETHandlers\GETAllCountriesDataAPI\GETAllCountriesDataAPIHandler.java
